
AppPath: /Users/bchatard/Library/Application Support/JetBrains/Toolbox/apps/Rider/ch-0/171.4456.199/Rider EAP.app
Config Path: /Users/bchatard/Library/Preferences/Rider10
AppPath: /Users/bchatard/Library/Application Support/JetBrains/Toolbox/apps/PhpStorm/ch-0/171.4424.11/PhpStorm.app
Config Path: /Users/bchatard/Library/Preferences/PhpStorm2017.1
Work with: /Users/bchatard/Library/Preferences/PhpStorm2017.1/options/recentProjectDirectories.xml
Raw Projects Path:
 value="$USER_HOME$/Projects/Sulky/Dev/sandbox" value="$USER_HOME$/Projects/brice/jetbrains-alfred-workflow" value="$USER_HOME$/Projects/Sulky/Dev/magento" value="$USER_HOME$/Projects/Diverti/Dev/magento2" value="$USER_HOME$/Projects/aYaline/Dev/magento2-modules/core" value="$USER_HOME$/Projects/SNTL/Dev/magento" value="$USER_HOME$/Projects/aYaline/Dev/aiorp" value="$USER_HOME$/Projects/Tourisme/SudCevennes/Dev/sud-cevennes" value="$USER_HOME$/Downloads/brice/awesomplete-gh-pages" value="$USER_HOME$/Projects/aYaline/Dev/magento2-modules/dataflow-manager" value="$USER_HOME$/Projects/aYaline/Dev/magento2-modules/copernica" value="$USER_HOME$/Projects/Denis-Materiaux/Dev/magento" value="$USER_HOME$/Projects/Monosem/Dev/magento" value="$USER_HOME$/Projects/Sulky/Dev/poc-sulky-parse-planches" value="$USER_HOME$/Projects/Diverti/Dev/magento" value="$USER_HOME$/Projects/aYaline/Dev/magento2-modules/dataflow-manager-component" value="$USER_HOME$/Projects/aYaline/Dev/magento1-modules/dataflow-manager" value="$USER_HOME$/Projects/aYaline/Dev/gitlab-mantis" value="$USER_HOME$/Projects/aYaline/Dev/magento2-modules/cookie-consent" value="$USER_HOME$/Projects/aYaline/Dev/magento2-modules/promotional-gift" value="$USER_HOME$/Projects/Sabre/Dev/magento" value="$USER_HOME$/Projects/aYaline/Dev/magento2-modules/frontend-authorization" value="$USER_HOME$/Projects/Connexing/Dev/magento" value="$USER_HOME$/Projects/GPDIS/Dev/magento" value="$USER_HOME$/Projects/aYaline/Dev/projeqtor/tickets" value="$USER_HOME$/Projects/aYaline/Dev/projeqtor/tickets-backend" value="$USER_HOME$/Projects/HDCZ/Dev/magento" value="$USER_HOME$/Projects/aYaline/Dev/magento2-modules/multi-cart" value="$USER_HOME$/Projects/aYaline/Dev/magento2-modules/express-order" value="$USER_HOME$/Projects/MS/Dev/GIP_Emploi_formation" value="$USER_HOME$/Projects/aYaline/Dev/acl-manager" value="$USER_HOME$/Projects/aYaline/Dev/magento2-modules/store-redirect" value="$USER_HOME$/Projects/Diverti/Dev/magento2_prod" value="$USER_HOME$/Projects/CB&amp;I" value="$USER_HOME$/Projects/aYaline/Dev/magento1-modules/customer-price" value="$USER_HOME$/Projects/brice/angular2-tuts" value="$USER_HOME$/Projects/Palais-des-Thes/Dev/magento" value="$USER_HOME$/Projects/Allbrary/Dev/magento" value="$USER_HOME$/Projects/Tourisme/Royan/Dev/otr" value="$USER_HOME$/Projects/brice/brew-update" value="$USER_HOME$/Projects/aYaline/Dev/magento1-modules/billboard" value="$USER_HOME$/Projects/aYaline/Dev/magento2-modules/billboard" value="$USER_HOME$/Projects/aYaline/Dev/magento1-modules/manage-background" value="$USER_HOME$/Projects/Tourisme/CAD22/Dev/cdt22" value="$USER_HOME$/Projects/ProtectHomS/Dev/magento" value="$USER_HOME$/Projects/Tourisme/LSDO/Dev/lsdo" value="$USER_HOME$/Projects/aYaline/Dev/magento1-modules/attached-documents" value="$USER_HOME$/Projects/Tourisme/CAD22TV/Dev/cad22tv" value="$USER_HOME$/Projects/aYaline/Dev/Sources/Magento1/1610" value="$USER_HOME$/Projects/aYaline/Dev/magento1-modules/delivery-date"
Projects Path:
/Users/bchatard/Projects/Sulky/Dev/sandbox
/Users/bchatard/Projects/brice/jetbrains-alfred-workflow
/Users/bchatard/Projects/Sulky/Dev/magento
/Users/bchatard/Projects/Diverti/Dev/magento2
/Users/bchatard/Projects/aYaline/Dev/magento2-modules/core
/Users/bchatard/Projects/SNTL/Dev/magento
/Users/bchatard/Projects/aYaline/Dev/aiorp
/Users/bchatard/Projects/Tourisme/SudCevennes/Dev/sud-cevennes
/Users/bchatard/Downloads/brice/awesomplete-gh-pages
/Users/bchatard/Projects/aYaline/Dev/magento2-modules/dataflow-manager
/Users/bchatard/Projects/aYaline/Dev/magento2-modules/copernica
/Users/bchatard/Projects/Denis-Materiaux/Dev/magento
/Users/bchatard/Projects/Monosem/Dev/magento
/Users/bchatard/Projects/Sulky/Dev/poc-sulky-parse-planches
/Users/bchatard/Projects/Diverti/Dev/magento
/Users/bchatard/Projects/aYaline/Dev/magento2-modules/dataflow-manager-component
/Users/bchatard/Projects/aYaline/Dev/magento1-modules/dataflow-manager
/Users/bchatard/Projects/aYaline/Dev/gitlab-mantis
/Users/bchatard/Projects/aYaline/Dev/magento2-modules/cookie-consent
/Users/bchatard/Projects/aYaline/Dev/magento2-modules/promotional-gift
/Users/bchatard/Projects/Sabre/Dev/magento
/Users/bchatard/Projects/aYaline/Dev/magento2-modules/frontend-authorization
/Users/bchatard/Projects/Connexing/Dev/magento
/Users/bchatard/Projects/GPDIS/Dev/magento
/Users/bchatard/Projects/aYaline/Dev/projeqtor/tickets
/Users/bchatard/Projects/aYaline/Dev/projeqtor/tickets-backend
/Users/bchatard/Projects/HDCZ/Dev/magento
/Users/bchatard/Projects/aYaline/Dev/magento2-modules/multi-cart
/Users/bchatard/Projects/aYaline/Dev/magento2-modules/express-order
/Users/bchatard/Projects/MS/Dev/GIP_Emploi_formation
/Users/bchatard/Projects/aYaline/Dev/acl-manager
/Users/bchatard/Projects/aYaline/Dev/magento2-modules/store-redirect
/Users/bchatard/Projects/Diverti/Dev/magento2_prod
/Users/bchatard/Projects/CB&amp;I
/Users/bchatard/Projects/aYaline/Dev/magento1-modules/customer-price
/Users/bchatard/Projects/brice/angular2-tuts
/Users/bchatard/Projects/Palais-des-Thes/Dev/magento
/Users/bchatard/Projects/Allbrary/Dev/magento
/Users/bchatard/Projects/Tourisme/Royan/Dev/otr
/Users/bchatard/Projects/brice/brew-update
/Users/bchatard/Projects/aYaline/Dev/magento1-modules/billboard
/Users/bchatard/Projects/aYaline/Dev/magento2-modules/billboard
/Users/bchatard/Projects/aYaline/Dev/magento1-modules/manage-background
/Users/bchatard/Projects/Tourisme/CAD22/Dev/cdt22
/Users/bchatard/Projects/ProtectHomS/Dev/magento
/Users/bchatard/Projects/Tourisme/LSDO/Dev/lsdo
/Users/bchatard/Projects/aYaline/Dev/magento1-modules/attached-documents
/Users/bchatard/Projects/Tourisme/CAD22TV/Dev/cad22tv
/Users/bchatard/Projects/aYaline/Dev/Sources/Magento1/1610
/Users/bchatard/Projects/aYaline/Dev/magento1-modules/delivery-date

	Process /Users/bchatard/Projects/Sulky/Dev/sandbox
extractProjectName via workspace.xml
	 Project Name sandbox

	Process /Users/bchatard/Projects/brice/jetbrains-alfred-workflow
extractProjectName via .name
	 Project Name jetbrains-alfred-workflow

	Process /Users/bchatard/Projects/Sulky/Dev/magento
extractProjectName via .name
	 Project Name Sulky - Magento

	Process /Users/bchatard/Projects/Diverti/Dev/magento2
extractProjectName via .name
	 Project Name Diverti - Magento 2

	Process /Users/bchatard/Projects/aYaline/Dev/magento2-modules/core
extractProjectName via .name
	 Project Name aYaline Capi Magento 2 - Core

	Process /Users/bchatard/Projects/SNTL/Dev/magento
extractProjectName via .name
	 Project Name SNTL - Magento

	Process /Users/bchatard/Projects/aYaline/Dev/aiorp
extractProjectName via .name
	 Project Name aYaline - AIORP

	Process /Users/bchatard/Projects/Tourisme/SudCevennes/Dev/sud-cevennes
extractProjectName via workspace.xml
	 Project Name sud-cevennes

	Process /Users/bchatard/Downloads/brice/awesomplete-gh-pages
	 Project Name 

	Process /Users/bchatard/Projects/aYaline/Dev/magento2-modules/dataflow-manager
extractProjectName via .name
	 Project Name aYaline Capi Magento 2 - Dataflow Manager

	Process /Users/bchatard/Projects/aYaline/Dev/magento2-modules/copernica
extractProjectName via .name
	 Project Name aYaline Capi Magento 2 - Copernica

	Process /Users/bchatard/Projects/Denis-Materiaux/Dev/magento
	 Project Name 

	Process /Users/bchatard/Projects/Monosem/Dev/magento
	 Project Name 

	Process /Users/bchatard/Projects/Sulky/Dev/poc-sulky-parse-planches
extractProjectName via workspace.xml
	 Project Name poc-sulky-parse-planches

	Process /Users/bchatard/Projects/Diverti/Dev/magento
extractProjectName via .name
	 Project Name Diverti - Magento

	Process /Users/bchatard/Projects/aYaline/Dev/magento2-modules/dataflow-manager-component
extractProjectName via workspace.xml
	 Project Name dataflow-manager-component

	Process /Users/bchatard/Projects/aYaline/Dev/magento1-modules/dataflow-manager
extractProjectName via .name
	 Project Name aYaline - Capi - DataflowManager

	Process /Users/bchatard/Projects/aYaline/Dev/gitlab-mantis
extractProjectName via .name
	 Project Name Gitlab / Mantis Connector

	Process /Users/bchatard/Projects/aYaline/Dev/magento2-modules/cookie-consent
extractProjectName via .name
	 Project Name aYaline Capi Magento 2 - Cookie Consent

	Process /Users/bchatard/Projects/aYaline/Dev/magento2-modules/promotional-gift
extractProjectName via .name
	 Project Name aYaline Capi Magento 2 - Promotional Gift

	Process /Users/bchatard/Projects/Sabre/Dev/magento
	 Project Name 

	Process /Users/bchatard/Projects/aYaline/Dev/magento2-modules/frontend-authorization
extractProjectName via .name
	 Project Name aYaline Capi Magento 2 - Frontend Authorization

	Process /Users/bchatard/Projects/Connexing/Dev/magento
extractProjectName via .name
	 Project Name Connexing - Magento

	Process /Users/bchatard/Projects/GPDIS/Dev/magento
	 Project Name 

	Process /Users/bchatard/Projects/aYaline/Dev/projeqtor/tickets
extractProjectName via workspace.xml
	 Project Name tickets

	Process /Users/bchatard/Projects/aYaline/Dev/projeqtor/tickets-backend
extractProjectName via workspace.xml
	 Project Name tickets-backend

	Process /Users/bchatard/Projects/HDCZ/Dev/magento
	 Project Name 

	Process /Users/bchatard/Projects/aYaline/Dev/magento2-modules/multi-cart
extractProjectName via .name
	 Project Name aYaline Capi Magento 2 - Multi Cart

	Process /Users/bchatard/Projects/aYaline/Dev/magento2-modules/express-order
extractProjectName via .name
	 Project Name aYaline Capi Magento 2 - Express Order

	Process /Users/bchatard/Projects/MS/Dev/GIP_Emploi_formation
	 Project Name 

	Process /Users/bchatard/Projects/aYaline/Dev/acl-manager
extractProjectName via workspace.xml
	 Project Name acl-manager

	Process /Users/bchatard/Projects/aYaline/Dev/magento2-modules/store-redirect
extractProjectName via workspace.xml
	 Project Name store-redirect

	Process /Users/bchatard/Projects/Diverti/Dev/magento2_prod
	 Project Name 

	Process /Users/bchatard/Projects/CB&amp;I
	 Project Name 

	Process /Users/bchatard/Projects/aYaline/Dev/magento1-modules/customer-price
extractProjectName via .name
	 Project Name aYaline - Capi - Customer Price

	Process /Users/bchatard/Projects/brice/angular2-tuts
extractProjectName via workspace.xml
	 Project Name angular2-tuts

	Process /Users/bchatard/Projects/Palais-des-Thes/Dev/magento
	 Project Name 

	Process /Users/bchatard/Projects/Allbrary/Dev/magento
	 Project Name 

	Process /Users/bchatard/Projects/Tourisme/Royan/Dev/otr
extractProjectName via workspace.xml
	 Project Name otr

	Process /Users/bchatard/Projects/brice/brew-update
extractProjectName via .name
	 Project Name brew-update

	Process /Users/bchatard/Projects/aYaline/Dev/magento1-modules/billboard
extractProjectName via .name
	 Project Name aYaline - Capi - Billboard

	Process /Users/bchatard/Projects/aYaline/Dev/magento2-modules/billboard
extractProjectName via .name
	 Project Name aYaline Capi Magento 2 - Billboard

	Process /Users/bchatard/Projects/aYaline/Dev/magento1-modules/manage-background
extractProjectName via .name
	 Project Name aYaline - Capi - Manage Background

	Process /Users/bchatard/Projects/Tourisme/CAD22/Dev/cdt22
extractProjectName via workspace.xml
	 Project Name cdt22

	Process /Users/bchatard/Projects/ProtectHomS/Dev/magento
	 Project Name 

	Process /Users/bchatard/Projects/Tourisme/LSDO/Dev/lsdo
extractProjectName via workspace.xml
	 Project Name lsdo

	Process /Users/bchatard/Projects/aYaline/Dev/magento1-modules/attached-documents
extractProjectName via .name
	 Project Name aYaline - Capi - Attached Documents

	Process /Users/bchatard/Projects/Tourisme/CAD22TV/Dev/cad22tv
extractProjectName via workspace.xml
	 Project Name cad22tv

	Process /Users/bchatard/Projects/aYaline/Dev/Sources/Magento1/1610
	 Project Name 

	Process /Users/bchatard/Projects/aYaline/Dev/magento1-modules/delivery-date
extractProjectName via .name
	 Project Name aYaline - Capi - Delivery Date

AppPath: /Users/bchatard/Library/Application Support/JetBrains/Toolbox/apps/PhpStorm/ch-0/171.4424.11/PhpStorm.app
Config Path: /Users/bchatard/Library/Preferences/PhpStorm2017.1
Work with: /Users/bchatard/Library/Preferences/PhpStorm2017.1/options/recentProjectDirectories.xml
Raw Projects Path:
 value="$USER_HOME$/Projects/Sulky/Dev/sandbox" value="$USER_HOME$/Projects/brice/jetbrains-alfred-workflow" value="$USER_HOME$/Projects/Sulky/Dev/magento" value="$USER_HOME$/Projects/Diverti/Dev/magento2" value="$USER_HOME$/Projects/aYaline/Dev/magento2-modules/core" value="$USER_HOME$/Projects/SNTL/Dev/magento" value="$USER_HOME$/Projects/aYaline/Dev/aiorp" value="$USER_HOME$/Projects/Tourisme/SudCevennes/Dev/sud-cevennes" value="$USER_HOME$/Downloads/brice/awesomplete-gh-pages" value="$USER_HOME$/Projects/aYaline/Dev/magento2-modules/dataflow-manager" value="$USER_HOME$/Projects/aYaline/Dev/magento2-modules/copernica" value="$USER_HOME$/Projects/Denis-Materiaux/Dev/magento" value="$USER_HOME$/Projects/Monosem/Dev/magento" value="$USER_HOME$/Projects/Sulky/Dev/poc-sulky-parse-planches" value="$USER_HOME$/Projects/Diverti/Dev/magento" value="$USER_HOME$/Projects/aYaline/Dev/magento2-modules/dataflow-manager-component" value="$USER_HOME$/Projects/aYaline/Dev/magento1-modules/dataflow-manager" value="$USER_HOME$/Projects/aYaline/Dev/gitlab-mantis" value="$USER_HOME$/Projects/aYaline/Dev/magento2-modules/cookie-consent" value="$USER_HOME$/Projects/aYaline/Dev/magento2-modules/promotional-gift" value="$USER_HOME$/Projects/Sabre/Dev/magento" value="$USER_HOME$/Projects/aYaline/Dev/magento2-modules/frontend-authorization" value="$USER_HOME$/Projects/Connexing/Dev/magento" value="$USER_HOME$/Projects/GPDIS/Dev/magento" value="$USER_HOME$/Projects/aYaline/Dev/projeqtor/tickets" value="$USER_HOME$/Projects/aYaline/Dev/projeqtor/tickets-backend" value="$USER_HOME$/Projects/HDCZ/Dev/magento" value="$USER_HOME$/Projects/aYaline/Dev/magento2-modules/multi-cart" value="$USER_HOME$/Projects/aYaline/Dev/magento2-modules/express-order" value="$USER_HOME$/Projects/MS/Dev/GIP_Emploi_formation" value="$USER_HOME$/Projects/aYaline/Dev/acl-manager" value="$USER_HOME$/Projects/aYaline/Dev/magento2-modules/store-redirect" value="$USER_HOME$/Projects/Diverti/Dev/magento2_prod" value="$USER_HOME$/Projects/CB&amp;I" value="$USER_HOME$/Projects/aYaline/Dev/magento1-modules/customer-price" value="$USER_HOME$/Projects/brice/angular2-tuts" value="$USER_HOME$/Projects/Palais-des-Thes/Dev/magento" value="$USER_HOME$/Projects/Allbrary/Dev/magento" value="$USER_HOME$/Projects/Tourisme/Royan/Dev/otr" value="$USER_HOME$/Projects/brice/brew-update" value="$USER_HOME$/Projects/aYaline/Dev/magento1-modules/billboard" value="$USER_HOME$/Projects/aYaline/Dev/magento2-modules/billboard" value="$USER_HOME$/Projects/aYaline/Dev/magento1-modules/manage-background" value="$USER_HOME$/Projects/Tourisme/CAD22/Dev/cdt22" value="$USER_HOME$/Projects/ProtectHomS/Dev/magento" value="$USER_HOME$/Projects/Tourisme/LSDO/Dev/lsdo" value="$USER_HOME$/Projects/aYaline/Dev/magento1-modules/attached-documents" value="$USER_HOME$/Projects/Tourisme/CAD22TV/Dev/cad22tv" value="$USER_HOME$/Projects/aYaline/Dev/Sources/Magento1/1610" value="$USER_HOME$/Projects/aYaline/Dev/magento1-modules/delivery-date"
Projects Path:
/Users/bchatard/Projects/Sulky/Dev/sandbox
/Users/bchatard/Projects/brice/jetbrains-alfred-workflow
/Users/bchatard/Projects/Sulky/Dev/magento
/Users/bchatard/Projects/Diverti/Dev/magento2
/Users/bchatard/Projects/aYaline/Dev/magento2-modules/core
/Users/bchatard/Projects/SNTL/Dev/magento
/Users/bchatard/Projects/aYaline/Dev/aiorp
/Users/bchatard/Projects/Tourisme/SudCevennes/Dev/sud-cevennes
/Users/bchatard/Downloads/brice/awesomplete-gh-pages
/Users/bchatard/Projects/aYaline/Dev/magento2-modules/dataflow-manager
/Users/bchatard/Projects/aYaline/Dev/magento2-modules/copernica
/Users/bchatard/Projects/Denis-Materiaux/Dev/magento
/Users/bchatard/Projects/Monosem/Dev/magento
/Users/bchatard/Projects/Sulky/Dev/poc-sulky-parse-planches
/Users/bchatard/Projects/Diverti/Dev/magento
/Users/bchatard/Projects/aYaline/Dev/magento2-modules/dataflow-manager-component
/Users/bchatard/Projects/aYaline/Dev/magento1-modules/dataflow-manager
/Users/bchatard/Projects/aYaline/Dev/gitlab-mantis
/Users/bchatard/Projects/aYaline/Dev/magento2-modules/cookie-consent
/Users/bchatard/Projects/aYaline/Dev/magento2-modules/promotional-gift
/Users/bchatard/Projects/Sabre/Dev/magento
/Users/bchatard/Projects/aYaline/Dev/magento2-modules/frontend-authorization
/Users/bchatard/Projects/Connexing/Dev/magento
/Users/bchatard/Projects/GPDIS/Dev/magento
/Users/bchatard/Projects/aYaline/Dev/projeqtor/tickets
/Users/bchatard/Projects/aYaline/Dev/projeqtor/tickets-backend
/Users/bchatard/Projects/HDCZ/Dev/magento
/Users/bchatard/Projects/aYaline/Dev/magento2-modules/multi-cart
/Users/bchatard/Projects/aYaline/Dev/magento2-modules/express-order
/Users/bchatard/Projects/MS/Dev/GIP_Emploi_formation
/Users/bchatard/Projects/aYaline/Dev/acl-manager
/Users/bchatard/Projects/aYaline/Dev/magento2-modules/store-redirect
/Users/bchatard/Projects/Diverti/Dev/magento2_prod
/Users/bchatard/Projects/CB&amp;I
/Users/bchatard/Projects/aYaline/Dev/magento1-modules/customer-price
/Users/bchatard/Projects/brice/angular2-tuts
/Users/bchatard/Projects/Palais-des-Thes/Dev/magento
/Users/bchatard/Projects/Allbrary/Dev/magento
/Users/bchatard/Projects/Tourisme/Royan/Dev/otr
/Users/bchatard/Projects/brice/brew-update
/Users/bchatard/Projects/aYaline/Dev/magento1-modules/billboard
/Users/bchatard/Projects/aYaline/Dev/magento2-modules/billboard
/Users/bchatard/Projects/aYaline/Dev/magento1-modules/manage-background
/Users/bchatard/Projects/Tourisme/CAD22/Dev/cdt22
/Users/bchatard/Projects/ProtectHomS/Dev/magento
/Users/bchatard/Projects/Tourisme/LSDO/Dev/lsdo
/Users/bchatard/Projects/aYaline/Dev/magento1-modules/attached-documents
/Users/bchatard/Projects/Tourisme/CAD22TV/Dev/cad22tv
/Users/bchatard/Projects/aYaline/Dev/Sources/Magento1/1610
/Users/bchatard/Projects/aYaline/Dev/magento1-modules/delivery-date

	Process /Users/bchatard/Projects/Sulky/Dev/sandbox
extractProjectName via workspace.xml
	 Project Name sandbox
	  Search 'j' in 'sandbox' OR 'sandbox'

	Process /Users/bchatard/Projects/brice/jetbrains-alfred-workflow
extractProjectName via .name
	 Project Name jetbrains-alfred-workflow
	  Search 'j' in 'jetbrains-alfred-workflow' OR 'jetbrains-alfred-workflow'
	   founded

	Process /Users/bchatard/Projects/Sulky/Dev/magento
extractProjectName via .name
	 Project Name Sulky - Magento
	  Search 'j' in 'sulky - magento' OR 'magento'

	Process /Users/bchatard/Projects/Diverti/Dev/magento2
extractProjectName via .name
	 Project Name Diverti - Magento 2
	  Search 'j' in 'diverti - magento 2' OR 'magento2'

	Process /Users/bchatard/Projects/aYaline/Dev/magento2-modules/core
extractProjectName via .name
	 Project Name aYaline Capi Magento 2 - Core
	  Search 'j' in 'ayaline capi magento 2 - core' OR 'core'

	Process /Users/bchatard/Projects/SNTL/Dev/magento
extractProjectName via .name
	 Project Name SNTL - Magento
	  Search 'j' in 'sntl - magento' OR 'magento'

	Process /Users/bchatard/Projects/aYaline/Dev/aiorp
extractProjectName via .name
	 Project Name aYaline - AIORP
	  Search 'j' in 'ayaline - aiorp' OR 'aiorp'

	Process /Users/bchatard/Projects/Tourisme/SudCevennes/Dev/sud-cevennes
extractProjectName via workspace.xml
	 Project Name sud-cevennes
	  Search 'j' in 'sud-cevennes' OR 'sud-cevennes'

	Process /Users/bchatard/Downloads/brice/awesomplete-gh-pages
	 Project Name 

	Process /Users/bchatard/Projects/aYaline/Dev/magento2-modules/dataflow-manager
extractProjectName via .name
	 Project Name aYaline Capi Magento 2 - Dataflow Manager
	  Search 'j' in 'ayaline capi magento 2 - dataflow manager' OR 'dataflow-manager'

	Process /Users/bchatard/Projects/aYaline/Dev/magento2-modules/copernica
extractProjectName via .name
	 Project Name aYaline Capi Magento 2 - Copernica
	  Search 'j' in 'ayaline capi magento 2 - copernica' OR 'copernica'

	Process /Users/bchatard/Projects/Denis-Materiaux/Dev/magento
	 Project Name 

	Process /Users/bchatard/Projects/Monosem/Dev/magento
	 Project Name 

	Process /Users/bchatard/Projects/Sulky/Dev/poc-sulky-parse-planches
extractProjectName via workspace.xml
	 Project Name poc-sulky-parse-planches
	  Search 'j' in 'poc-sulky-parse-planches' OR 'poc-sulky-parse-planches'

	Process /Users/bchatard/Projects/Diverti/Dev/magento
extractProjectName via .name
	 Project Name Diverti - Magento
	  Search 'j' in 'diverti - magento' OR 'magento'

	Process /Users/bchatard/Projects/aYaline/Dev/magento2-modules/dataflow-manager-component
extractProjectName via workspace.xml
	 Project Name dataflow-manager-component
	  Search 'j' in 'dataflow-manager-component' OR 'dataflow-manager-component'

	Process /Users/bchatard/Projects/aYaline/Dev/magento1-modules/dataflow-manager
extractProjectName via .name
	 Project Name aYaline - Capi - DataflowManager
	  Search 'j' in 'ayaline - capi - dataflowmanager' OR 'dataflow-manager'

	Process /Users/bchatard/Projects/aYaline/Dev/gitlab-mantis
extractProjectName via .name
	 Project Name Gitlab / Mantis Connector
	  Search 'j' in 'gitlab / mantis connector' OR 'gitlab-mantis'

	Process /Users/bchatard/Projects/aYaline/Dev/magento2-modules/cookie-consent
extractProjectName via .name
	 Project Name aYaline Capi Magento 2 - Cookie Consent
	  Search 'j' in 'ayaline capi magento 2 - cookie consent' OR 'cookie-consent'

	Process /Users/bchatard/Projects/aYaline/Dev/magento2-modules/promotional-gift
extractProjectName via .name
	 Project Name aYaline Capi Magento 2 - Promotional Gift
	  Search 'j' in 'ayaline capi magento 2 - promotional gift' OR 'promotional-gift'

	Process /Users/bchatard/Projects/Sabre/Dev/magento
	 Project Name 

	Process /Users/bchatard/Projects/aYaline/Dev/magento2-modules/frontend-authorization
extractProjectName via .name
	 Project Name aYaline Capi Magento 2 - Frontend Authorization
	  Search 'j' in 'ayaline capi magento 2 - frontend authorization' OR 'frontend-authorization'

	Process /Users/bchatard/Projects/Connexing/Dev/magento
extractProjectName via .name
	 Project Name Connexing - Magento
	  Search 'j' in 'connexing - magento' OR 'magento'

	Process /Users/bchatard/Projects/GPDIS/Dev/magento
	 Project Name 

	Process /Users/bchatard/Projects/aYaline/Dev/projeqtor/tickets
extractProjectName via workspace.xml
	 Project Name tickets
	  Search 'j' in 'tickets' OR 'tickets'

	Process /Users/bchatard/Projects/aYaline/Dev/projeqtor/tickets-backend
extractProjectName via workspace.xml
	 Project Name tickets-backend
	  Search 'j' in 'tickets-backend' OR 'tickets-backend'

	Process /Users/bchatard/Projects/HDCZ/Dev/magento
	 Project Name 

	Process /Users/bchatard/Projects/aYaline/Dev/magento2-modules/multi-cart
extractProjectName via .name
	 Project Name aYaline Capi Magento 2 - Multi Cart
	  Search 'j' in 'ayaline capi magento 2 - multi cart' OR 'multi-cart'

	Process /Users/bchatard/Projects/aYaline/Dev/magento2-modules/express-order
extractProjectName via .name
	 Project Name aYaline Capi Magento 2 - Express Order
	  Search 'j' in 'ayaline capi magento 2 - express order' OR 'express-order'

	Process /Users/bchatard/Projects/MS/Dev/GIP_Emploi_formation
	 Project Name 

	Process /Users/bchatard/Projects/aYaline/Dev/acl-manager
extractProjectName via workspace.xml
	 Project Name acl-manager
	  Search 'j' in 'acl-manager' OR 'acl-manager'

	Process /Users/bchatard/Projects/aYaline/Dev/magento2-modules/store-redirect
extractProjectName via workspace.xml
	 Project Name store-redirect
	  Search 'j' in 'store-redirect' OR 'store-redirect'

	Process /Users/bchatard/Projects/Diverti/Dev/magento2_prod
	 Project Name 

	Process /Users/bchatard/Projects/CB&amp;I
	 Project Name 

	Process /Users/bchatard/Projects/aYaline/Dev/magento1-modules/customer-price
extractProjectName via .name
	 Project Name aYaline - Capi - Customer Price
	  Search 'j' in 'ayaline - capi - customer price' OR 'customer-price'

	Process /Users/bchatard/Projects/brice/angular2-tuts
extractProjectName via workspace.xml
	 Project Name angular2-tuts
	  Search 'j' in 'angular2-tuts' OR 'angular2-tuts'

	Process /Users/bchatard/Projects/Palais-des-Thes/Dev/magento
	 Project Name 

	Process /Users/bchatard/Projects/Allbrary/Dev/magento
	 Project Name 

	Process /Users/bchatard/Projects/Tourisme/Royan/Dev/otr
extractProjectName via workspace.xml
	 Project Name otr
	  Search 'j' in 'otr' OR 'otr'

	Process /Users/bchatard/Projects/brice/brew-update
extractProjectName via .name
	 Project Name brew-update
	  Search 'j' in 'brew-update' OR 'brew-update'

	Process /Users/bchatard/Projects/aYaline/Dev/magento1-modules/billboard
extractProjectName via .name
	 Project Name aYaline - Capi - Billboard
	  Search 'j' in 'ayaline - capi - billboard' OR 'billboard'

	Process /Users/bchatard/Projects/aYaline/Dev/magento2-modules/billboard
extractProjectName via .name
	 Project Name aYaline Capi Magento 2 - Billboard
	  Search 'j' in 'ayaline capi magento 2 - billboard' OR 'billboard'

	Process /Users/bchatard/Projects/aYaline/Dev/magento1-modules/manage-background
extractProjectName via .name
	 Project Name aYaline - Capi - Manage Background
	  Search 'j' in 'ayaline - capi - manage background' OR 'manage-background'

	Process /Users/bchatard/Projects/Tourisme/CAD22/Dev/cdt22
extractProjectName via workspace.xml
	 Project Name cdt22
	  Search 'j' in 'cdt22' OR 'cdt22'

	Process /Users/bchatard/Projects/ProtectHomS/Dev/magento
	 Project Name 

	Process /Users/bchatard/Projects/Tourisme/LSDO/Dev/lsdo
extractProjectName via workspace.xml
	 Project Name lsdo
	  Search 'j' in 'lsdo' OR 'lsdo'

	Process /Users/bchatard/Projects/aYaline/Dev/magento1-modules/attached-documents
extractProjectName via .name
	 Project Name aYaline - Capi - Attached Documents
	  Search 'j' in 'ayaline - capi - attached documents' OR 'attached-documents'

	Process /Users/bchatard/Projects/Tourisme/CAD22TV/Dev/cad22tv
extractProjectName via workspace.xml
	 Project Name cad22tv
	  Search 'j' in 'cad22tv' OR 'cad22tv'

	Process /Users/bchatard/Projects/aYaline/Dev/Sources/Magento1/1610
	 Project Name 

	Process /Users/bchatard/Projects/aYaline/Dev/magento1-modules/delivery-date
extractProjectName via .name
	 Project Name aYaline - Capi - Delivery Date
	  Search 'j' in 'ayaline - capi - delivery date' OR 'delivery-date'

AppPath: /Users/bchatard/Library/Application Support/JetBrains/Toolbox/apps/PhpStorm/ch-0/171.4424.11/PhpStorm.app
Config Path: /Users/bchatard/Library/Preferences/PhpStorm2017.1
Work with: /Users/bchatard/Library/Preferences/PhpStorm2017.1/options/recentProjectDirectories.xml
Raw Projects Path:
 value="$USER_HOME$/Projects/Sulky/Dev/sandbox" value="$USER_HOME$/Projects/brice/jetbrains-alfred-workflow" value="$USER_HOME$/Projects/Sulky/Dev/magento" value="$USER_HOME$/Projects/Diverti/Dev/magento2" value="$USER_HOME$/Projects/aYaline/Dev/magento2-modules/core" value="$USER_HOME$/Projects/SNTL/Dev/magento" value="$USER_HOME$/Projects/aYaline/Dev/aiorp" value="$USER_HOME$/Projects/Tourisme/SudCevennes/Dev/sud-cevennes" value="$USER_HOME$/Downloads/brice/awesomplete-gh-pages" value="$USER_HOME$/Projects/aYaline/Dev/magento2-modules/dataflow-manager" value="$USER_HOME$/Projects/aYaline/Dev/magento2-modules/copernica" value="$USER_HOME$/Projects/Denis-Materiaux/Dev/magento" value="$USER_HOME$/Projects/Monosem/Dev/magento" value="$USER_HOME$/Projects/Sulky/Dev/poc-sulky-parse-planches" value="$USER_HOME$/Projects/Diverti/Dev/magento" value="$USER_HOME$/Projects/aYaline/Dev/magento2-modules/dataflow-manager-component" value="$USER_HOME$/Projects/aYaline/Dev/magento1-modules/dataflow-manager" value="$USER_HOME$/Projects/aYaline/Dev/gitlab-mantis" value="$USER_HOME$/Projects/aYaline/Dev/magento2-modules/cookie-consent" value="$USER_HOME$/Projects/aYaline/Dev/magento2-modules/promotional-gift" value="$USER_HOME$/Projects/Sabre/Dev/magento" value="$USER_HOME$/Projects/aYaline/Dev/magento2-modules/frontend-authorization" value="$USER_HOME$/Projects/Connexing/Dev/magento" value="$USER_HOME$/Projects/GPDIS/Dev/magento" value="$USER_HOME$/Projects/aYaline/Dev/projeqtor/tickets" value="$USER_HOME$/Projects/aYaline/Dev/projeqtor/tickets-backend" value="$USER_HOME$/Projects/HDCZ/Dev/magento" value="$USER_HOME$/Projects/aYaline/Dev/magento2-modules/multi-cart" value="$USER_HOME$/Projects/aYaline/Dev/magento2-modules/express-order" value="$USER_HOME$/Projects/MS/Dev/GIP_Emploi_formation" value="$USER_HOME$/Projects/aYaline/Dev/acl-manager" value="$USER_HOME$/Projects/aYaline/Dev/magento2-modules/store-redirect" value="$USER_HOME$/Projects/Diverti/Dev/magento2_prod" value="$USER_HOME$/Projects/CB&amp;I" value="$USER_HOME$/Projects/aYaline/Dev/magento1-modules/customer-price" value="$USER_HOME$/Projects/brice/angular2-tuts" value="$USER_HOME$/Projects/Palais-des-Thes/Dev/magento" value="$USER_HOME$/Projects/Allbrary/Dev/magento" value="$USER_HOME$/Projects/Tourisme/Royan/Dev/otr" value="$USER_HOME$/Projects/brice/brew-update" value="$USER_HOME$/Projects/aYaline/Dev/magento1-modules/billboard" value="$USER_HOME$/Projects/aYaline/Dev/magento2-modules/billboard" value="$USER_HOME$/Projects/aYaline/Dev/magento1-modules/manage-background" value="$USER_HOME$/Projects/Tourisme/CAD22/Dev/cdt22" value="$USER_HOME$/Projects/ProtectHomS/Dev/magento" value="$USER_HOME$/Projects/Tourisme/LSDO/Dev/lsdo" value="$USER_HOME$/Projects/aYaline/Dev/magento1-modules/attached-documents" value="$USER_HOME$/Projects/Tourisme/CAD22TV/Dev/cad22tv" value="$USER_HOME$/Projects/aYaline/Dev/Sources/Magento1/1610" value="$USER_HOME$/Projects/aYaline/Dev/magento1-modules/delivery-date"
Projects Path:
/Users/bchatard/Projects/Sulky/Dev/sandbox
/Users/bchatard/Projects/brice/jetbrains-alfred-workflow
/Users/bchatard/Projects/Sulky/Dev/magento
/Users/bchatard/Projects/Diverti/Dev/magento2
/Users/bchatard/Projects/aYaline/Dev/magento2-modules/core
/Users/bchatard/Projects/SNTL/Dev/magento
/Users/bchatard/Projects/aYaline/Dev/aiorp
/Users/bchatard/Projects/Tourisme/SudCevennes/Dev/sud-cevennes
/Users/bchatard/Downloads/brice/awesomplete-gh-pages
/Users/bchatard/Projects/aYaline/Dev/magento2-modules/dataflow-manager
/Users/bchatard/Projects/aYaline/Dev/magento2-modules/copernica
/Users/bchatard/Projects/Denis-Materiaux/Dev/magento
/Users/bchatard/Projects/Monosem/Dev/magento
/Users/bchatard/Projects/Sulky/Dev/poc-sulky-parse-planches
/Users/bchatard/Projects/Diverti/Dev/magento
/Users/bchatard/Projects/aYaline/Dev/magento2-modules/dataflow-manager-component
/Users/bchatard/Projects/aYaline/Dev/magento1-modules/dataflow-manager
/Users/bchatard/Projects/aYaline/Dev/gitlab-mantis
/Users/bchatard/Projects/aYaline/Dev/magento2-modules/cookie-consent
/Users/bchatard/Projects/aYaline/Dev/magento2-modules/promotional-gift
/Users/bchatard/Projects/Sabre/Dev/magento
/Users/bchatard/Projects/aYaline/Dev/magento2-modules/frontend-authorization
/Users/bchatard/Projects/Connexing/Dev/magento
/Users/bchatard/Projects/GPDIS/Dev/magento
/Users/bchatard/Projects/aYaline/Dev/projeqtor/tickets
/Users/bchatard/Projects/aYaline/Dev/projeqtor/tickets-backend
/Users/bchatard/Projects/HDCZ/Dev/magento
/Users/bchatard/Projects/aYaline/Dev/magento2-modules/multi-cart
/Users/bchatard/Projects/aYaline/Dev/magento2-modules/express-order
/Users/bchatard/Projects/MS/Dev/GIP_Emploi_formation
/Users/bchatard/Projects/aYaline/Dev/acl-manager
/Users/bchatard/Projects/aYaline/Dev/magento2-modules/store-redirect
/Users/bchatard/Projects/Diverti/Dev/magento2_prod
/Users/bchatard/Projects/CB&amp;I
/Users/bchatard/Projects/aYaline/Dev/magento1-modules/customer-price
/Users/bchatard/Projects/brice/angular2-tuts
/Users/bchatard/Projects/Palais-des-Thes/Dev/magento
/Users/bchatard/Projects/Allbrary/Dev/magento
/Users/bchatard/Projects/Tourisme/Royan/Dev/otr
/Users/bchatard/Projects/brice/brew-update
/Users/bchatard/Projects/aYaline/Dev/magento1-modules/billboard
/Users/bchatard/Projects/aYaline/Dev/magento2-modules/billboard
/Users/bchatard/Projects/aYaline/Dev/magento1-modules/manage-background
/Users/bchatard/Projects/Tourisme/CAD22/Dev/cdt22
/Users/bchatard/Projects/ProtectHomS/Dev/magento
/Users/bchatard/Projects/Tourisme/LSDO/Dev/lsdo
/Users/bchatard/Projects/aYaline/Dev/magento1-modules/attached-documents
/Users/bchatard/Projects/Tourisme/CAD22TV/Dev/cad22tv
/Users/bchatard/Projects/aYaline/Dev/Sources/Magento1/1610
/Users/bchatard/Projects/aYaline/Dev/magento1-modules/delivery-date

	Process /Users/bchatard/Projects/Sulky/Dev/sandbox
extractProjectName via workspace.xml
	 Project Name sandbox
	  Search 'je' in 'sandbox' OR 'sandbox'

	Process /Users/bchatard/Projects/brice/jetbrains-alfred-workflow
extractProjectName via .name
	 Project Name jetbrains-alfred-workflow
	  Search 'je' in 'jetbrains-alfred-workflow' OR 'jetbrains-alfred-workflow'
	   founded

	Process /Users/bchatard/Projects/Sulky/Dev/magento
extractProjectName via .name
	 Project Name Sulky - Magento
	  Search 'je' in 'sulky - magento' OR 'magento'

	Process /Users/bchatard/Projects/Diverti/Dev/magento2
extractProjectName via .name
	 Project Name Diverti - Magento 2
	  Search 'je' in 'diverti - magento 2' OR 'magento2'

	Process /Users/bchatard/Projects/aYaline/Dev/magento2-modules/core
extractProjectName via .name
	 Project Name aYaline Capi Magento 2 - Core
	  Search 'je' in 'ayaline capi magento 2 - core' OR 'core'

	Process /Users/bchatard/Projects/SNTL/Dev/magento
extractProjectName via .name
	 Project Name SNTL - Magento
	  Search 'je' in 'sntl - magento' OR 'magento'

	Process /Users/bchatard/Projects/aYaline/Dev/aiorp
extractProjectName via .name
	 Project Name aYaline - AIORP
	  Search 'je' in 'ayaline - aiorp' OR 'aiorp'

	Process /Users/bchatard/Projects/Tourisme/SudCevennes/Dev/sud-cevennes
extractProjectName via workspace.xml
	 Project Name sud-cevennes
	  Search 'je' in 'sud-cevennes' OR 'sud-cevennes'

	Process /Users/bchatard/Downloads/brice/awesomplete-gh-pages
	 Project Name 

	Process /Users/bchatard/Projects/aYaline/Dev/magento2-modules/dataflow-manager
extractProjectName via .name
	 Project Name aYaline Capi Magento 2 - Dataflow Manager
	  Search 'je' in 'ayaline capi magento 2 - dataflow manager' OR 'dataflow-manager'

	Process /Users/bchatard/Projects/aYaline/Dev/magento2-modules/copernica
extractProjectName via .name
	 Project Name aYaline Capi Magento 2 - Copernica
	  Search 'je' in 'ayaline capi magento 2 - copernica' OR 'copernica'

	Process /Users/bchatard/Projects/Denis-Materiaux/Dev/magento
	 Project Name 

	Process /Users/bchatard/Projects/Monosem/Dev/magento
	 Project Name 

	Process /Users/bchatard/Projects/Sulky/Dev/poc-sulky-parse-planches
extractProjectName via workspace.xml
	 Project Name poc-sulky-parse-planches
	  Search 'je' in 'poc-sulky-parse-planches' OR 'poc-sulky-parse-planches'

	Process /Users/bchatard/Projects/Diverti/Dev/magento
extractProjectName via .name
	 Project Name Diverti - Magento
	  Search 'je' in 'diverti - magento' OR 'magento'

	Process /Users/bchatard/Projects/aYaline/Dev/magento2-modules/dataflow-manager-component
extractProjectName via workspace.xml
	 Project Name dataflow-manager-component
	  Search 'je' in 'dataflow-manager-component' OR 'dataflow-manager-component'

	Process /Users/bchatard/Projects/aYaline/Dev/magento1-modules/dataflow-manager
extractProjectName via .name
	 Project Name aYaline - Capi - DataflowManager
	  Search 'je' in 'ayaline - capi - dataflowmanager' OR 'dataflow-manager'

	Process /Users/bchatard/Projects/aYaline/Dev/gitlab-mantis
extractProjectName via .name
	 Project Name Gitlab / Mantis Connector
	  Search 'je' in 'gitlab / mantis connector' OR 'gitlab-mantis'

	Process /Users/bchatard/Projects/aYaline/Dev/magento2-modules/cookie-consent
extractProjectName via .name
	 Project Name aYaline Capi Magento 2 - Cookie Consent
	  Search 'je' in 'ayaline capi magento 2 - cookie consent' OR 'cookie-consent'

	Process /Users/bchatard/Projects/aYaline/Dev/magento2-modules/promotional-gift
extractProjectName via .name
	 Project Name aYaline Capi Magento 2 - Promotional Gift
	  Search 'je' in 'ayaline capi magento 2 - promotional gift' OR 'promotional-gift'

	Process /Users/bchatard/Projects/Sabre/Dev/magento
	 Project Name 

	Process /Users/bchatard/Projects/aYaline/Dev/magento2-modules/frontend-authorization
extractProjectName via .name
	 Project Name aYaline Capi Magento 2 - Frontend Authorization
	  Search 'je' in 'ayaline capi magento 2 - frontend authorization' OR 'frontend-authorization'

	Process /Users/bchatard/Projects/Connexing/Dev/magento
extractProjectName via .name
	 Project Name Connexing - Magento
	  Search 'je' in 'connexing - magento' OR 'magento'

	Process /Users/bchatard/Projects/GPDIS/Dev/magento
	 Project Name 

	Process /Users/bchatard/Projects/aYaline/Dev/projeqtor/tickets
extractProjectName via workspace.xml
	 Project Name tickets
	  Search 'je' in 'tickets' OR 'tickets'

	Process /Users/bchatard/Projects/aYaline/Dev/projeqtor/tickets-backend
extractProjectName via workspace.xml
	 Project Name tickets-backend
	  Search 'je' in 'tickets-backend' OR 'tickets-backend'

	Process /Users/bchatard/Projects/HDCZ/Dev/magento
	 Project Name 

	Process /Users/bchatard/Projects/aYaline/Dev/magento2-modules/multi-cart
extractProjectName via .name
	 Project Name aYaline Capi Magento 2 - Multi Cart
	  Search 'je' in 'ayaline capi magento 2 - multi cart' OR 'multi-cart'

	Process /Users/bchatard/Projects/aYaline/Dev/magento2-modules/express-order
extractProjectName via .name
	 Project Name aYaline Capi Magento 2 - Express Order
	  Search 'je' in 'ayaline capi magento 2 - express order' OR 'express-order'

	Process /Users/bchatard/Projects/MS/Dev/GIP_Emploi_formation
	 Project Name 

	Process /Users/bchatard/Projects/aYaline/Dev/acl-manager
extractProjectName via workspace.xml
	 Project Name acl-manager
	  Search 'je' in 'acl-manager' OR 'acl-manager'

	Process /Users/bchatard/Projects/aYaline/Dev/magento2-modules/store-redirect
extractProjectName via workspace.xml
	 Project Name store-redirect
	  Search 'je' in 'store-redirect' OR 'store-redirect'

	Process /Users/bchatard/Projects/Diverti/Dev/magento2_prod
	 Project Name 

	Process /Users/bchatard/Projects/CB&amp;I
	 Project Name 

	Process /Users/bchatard/Projects/aYaline/Dev/magento1-modules/customer-price
extractProjectName via .name
	 Project Name aYaline - Capi - Customer Price
	  Search 'je' in 'ayaline - capi - customer price' OR 'customer-price'

	Process /Users/bchatard/Projects/brice/angular2-tuts
extractProjectName via workspace.xml
	 Project Name angular2-tuts
	  Search 'je' in 'angular2-tuts' OR 'angular2-tuts'

	Process /Users/bchatard/Projects/Palais-des-Thes/Dev/magento
	 Project Name 

	Process /Users/bchatard/Projects/Allbrary/Dev/magento
	 Project Name 

	Process /Users/bchatard/Projects/Tourisme/Royan/Dev/otr
extractProjectName via workspace.xml
	 Project Name otr
	  Search 'je' in 'otr' OR 'otr'

	Process /Users/bchatard/Projects/brice/brew-update
extractProjectName via .name
	 Project Name brew-update
	  Search 'je' in 'brew-update' OR 'brew-update'

	Process /Users/bchatard/Projects/aYaline/Dev/magento1-modules/billboard
extractProjectName via .name
	 Project Name aYaline - Capi - Billboard
	  Search 'je' in 'ayaline - capi - billboard' OR 'billboard'

	Process /Users/bchatard/Projects/aYaline/Dev/magento2-modules/billboard
extractProjectName via .name
	 Project Name aYaline Capi Magento 2 - Billboard
	  Search 'je' in 'ayaline capi magento 2 - billboard' OR 'billboard'

	Process /Users/bchatard/Projects/aYaline/Dev/magento1-modules/manage-background
extractProjectName via .name
	 Project Name aYaline - Capi - Manage Background
	  Search 'je' in 'ayaline - capi - manage background' OR 'manage-background'

	Process /Users/bchatard/Projects/Tourisme/CAD22/Dev/cdt22
extractProjectName via workspace.xml
	 Project Name cdt22
	  Search 'je' in 'cdt22' OR 'cdt22'

	Process /Users/bchatard/Projects/ProtectHomS/Dev/magento
	 Project Name 

	Process /Users/bchatard/Projects/Tourisme/LSDO/Dev/lsdo
extractProjectName via workspace.xml
	 Project Name lsdo
	  Search 'je' in 'lsdo' OR 'lsdo'

	Process /Users/bchatard/Projects/aYaline/Dev/magento1-modules/attached-documents
extractProjectName via .name
	 Project Name aYaline - Capi - Attached Documents
	  Search 'je' in 'ayaline - capi - attached documents' OR 'attached-documents'

	Process /Users/bchatard/Projects/Tourisme/CAD22TV/Dev/cad22tv
extractProjectName via workspace.xml
	 Project Name cad22tv
	  Search 'je' in 'cad22tv' OR 'cad22tv'

	Process /Users/bchatard/Projects/aYaline/Dev/Sources/Magento1/1610
	 Project Name 

	Process /Users/bchatard/Projects/aYaline/Dev/magento1-modules/delivery-date
extractProjectName via .name
	 Project Name aYaline - Capi - Delivery Date
	  Search 'je' in 'ayaline - capi - delivery date' OR 'delivery-date'

AppPath: /Users/bchatard/Library/Application Support/JetBrains/Toolbox/apps/PhpStorm/ch-0/171.4424.11/PhpStorm.app
Config Path: /Users/bchatard/Library/Preferences/PhpStorm2017.1
Work with: /Users/bchatard/Library/Preferences/PhpStorm2017.1/options/recentProjectDirectories.xml
Raw Projects Path:
 value="$USER_HOME$/Projects/Sulky/Dev/sandbox" value="$USER_HOME$/Projects/brice/jetbrains-alfred-workflow" value="$USER_HOME$/Projects/Sulky/Dev/magento" value="$USER_HOME$/Projects/Diverti/Dev/magento2" value="$USER_HOME$/Projects/aYaline/Dev/magento2-modules/core" value="$USER_HOME$/Projects/SNTL/Dev/magento" value="$USER_HOME$/Projects/aYaline/Dev/aiorp" value="$USER_HOME$/Projects/Tourisme/SudCevennes/Dev/sud-cevennes" value="$USER_HOME$/Downloads/brice/awesomplete-gh-pages" value="$USER_HOME$/Projects/aYaline/Dev/magento2-modules/dataflow-manager" value="$USER_HOME$/Projects/aYaline/Dev/magento2-modules/copernica" value="$USER_HOME$/Projects/Denis-Materiaux/Dev/magento" value="$USER_HOME$/Projects/Monosem/Dev/magento" value="$USER_HOME$/Projects/Sulky/Dev/poc-sulky-parse-planches" value="$USER_HOME$/Projects/Diverti/Dev/magento" value="$USER_HOME$/Projects/aYaline/Dev/magento2-modules/dataflow-manager-component" value="$USER_HOME$/Projects/aYaline/Dev/magento1-modules/dataflow-manager" value="$USER_HOME$/Projects/aYaline/Dev/gitlab-mantis" value="$USER_HOME$/Projects/aYaline/Dev/magento2-modules/cookie-consent" value="$USER_HOME$/Projects/aYaline/Dev/magento2-modules/promotional-gift" value="$USER_HOME$/Projects/Sabre/Dev/magento" value="$USER_HOME$/Projects/aYaline/Dev/magento2-modules/frontend-authorization" value="$USER_HOME$/Projects/Connexing/Dev/magento" value="$USER_HOME$/Projects/GPDIS/Dev/magento" value="$USER_HOME$/Projects/aYaline/Dev/projeqtor/tickets" value="$USER_HOME$/Projects/aYaline/Dev/projeqtor/tickets-backend" value="$USER_HOME$/Projects/HDCZ/Dev/magento" value="$USER_HOME$/Projects/aYaline/Dev/magento2-modules/multi-cart" value="$USER_HOME$/Projects/aYaline/Dev/magento2-modules/express-order" value="$USER_HOME$/Projects/MS/Dev/GIP_Emploi_formation" value="$USER_HOME$/Projects/aYaline/Dev/acl-manager" value="$USER_HOME$/Projects/aYaline/Dev/magento2-modules/store-redirect" value="$USER_HOME$/Projects/Diverti/Dev/magento2_prod" value="$USER_HOME$/Projects/CB&amp;I" value="$USER_HOME$/Projects/aYaline/Dev/magento1-modules/customer-price" value="$USER_HOME$/Projects/brice/angular2-tuts" value="$USER_HOME$/Projects/Palais-des-Thes/Dev/magento" value="$USER_HOME$/Projects/Allbrary/Dev/magento" value="$USER_HOME$/Projects/Tourisme/Royan/Dev/otr" value="$USER_HOME$/Projects/brice/brew-update" value="$USER_HOME$/Projects/aYaline/Dev/magento1-modules/billboard" value="$USER_HOME$/Projects/aYaline/Dev/magento2-modules/billboard" value="$USER_HOME$/Projects/aYaline/Dev/magento1-modules/manage-background" value="$USER_HOME$/Projects/Tourisme/CAD22/Dev/cdt22" value="$USER_HOME$/Projects/ProtectHomS/Dev/magento" value="$USER_HOME$/Projects/Tourisme/LSDO/Dev/lsdo" value="$USER_HOME$/Projects/aYaline/Dev/magento1-modules/attached-documents" value="$USER_HOME$/Projects/Tourisme/CAD22TV/Dev/cad22tv" value="$USER_HOME$/Projects/aYaline/Dev/Sources/Magento1/1610" value="$USER_HOME$/Projects/aYaline/Dev/magento1-modules/delivery-date"
Projects Path:
/Users/bchatard/Projects/Sulky/Dev/sandbox
/Users/bchatard/Projects/brice/jetbrains-alfred-workflow
/Users/bchatard/Projects/Sulky/Dev/magento
/Users/bchatard/Projects/Diverti/Dev/magento2
/Users/bchatard/Projects/aYaline/Dev/magento2-modules/core
/Users/bchatard/Projects/SNTL/Dev/magento
/Users/bchatard/Projects/aYaline/Dev/aiorp
/Users/bchatard/Projects/Tourisme/SudCevennes/Dev/sud-cevennes
/Users/bchatard/Downloads/brice/awesomplete-gh-pages
/Users/bchatard/Projects/aYaline/Dev/magento2-modules/dataflow-manager
/Users/bchatard/Projects/aYaline/Dev/magento2-modules/copernica
/Users/bchatard/Projects/Denis-Materiaux/Dev/magento
/Users/bchatard/Projects/Monosem/Dev/magento
/Users/bchatard/Projects/Sulky/Dev/poc-sulky-parse-planches
/Users/bchatard/Projects/Diverti/Dev/magento
/Users/bchatard/Projects/aYaline/Dev/magento2-modules/dataflow-manager-component
/Users/bchatard/Projects/aYaline/Dev/magento1-modules/dataflow-manager
/Users/bchatard/Projects/aYaline/Dev/gitlab-mantis
/Users/bchatard/Projects/aYaline/Dev/magento2-modules/cookie-consent
/Users/bchatard/Projects/aYaline/Dev/magento2-modules/promotional-gift
/Users/bchatard/Projects/Sabre/Dev/magento
/Users/bchatard/Projects/aYaline/Dev/magento2-modules/frontend-authorization
/Users/bchatard/Projects/Connexing/Dev/magento
/Users/bchatard/Projects/GPDIS/Dev/magento
/Users/bchatard/Projects/aYaline/Dev/projeqtor/tickets
/Users/bchatard/Projects/aYaline/Dev/projeqtor/tickets-backend
/Users/bchatard/Projects/HDCZ/Dev/magento
/Users/bchatard/Projects/aYaline/Dev/magento2-modules/multi-cart
/Users/bchatard/Projects/aYaline/Dev/magento2-modules/express-order
/Users/bchatard/Projects/MS/Dev/GIP_Emploi_formation
/Users/bchatard/Projects/aYaline/Dev/acl-manager
/Users/bchatard/Projects/aYaline/Dev/magento2-modules/store-redirect
/Users/bchatard/Projects/Diverti/Dev/magento2_prod
/Users/bchatard/Projects/CB&amp;I
/Users/bchatard/Projects/aYaline/Dev/magento1-modules/customer-price
/Users/bchatard/Projects/brice/angular2-tuts
/Users/bchatard/Projects/Palais-des-Thes/Dev/magento
/Users/bchatard/Projects/Allbrary/Dev/magento
/Users/bchatard/Projects/Tourisme/Royan/Dev/otr
/Users/bchatard/Projects/brice/brew-update
/Users/bchatard/Projects/aYaline/Dev/magento1-modules/billboard
/Users/bchatard/Projects/aYaline/Dev/magento2-modules/billboard
/Users/bchatard/Projects/aYaline/Dev/magento1-modules/manage-background
/Users/bchatard/Projects/Tourisme/CAD22/Dev/cdt22
/Users/bchatard/Projects/ProtectHomS/Dev/magento
/Users/bchatard/Projects/Tourisme/LSDO/Dev/lsdo
/Users/bchatard/Projects/aYaline/Dev/magento1-modules/attached-documents
/Users/bchatard/Projects/Tourisme/CAD22TV/Dev/cad22tv
/Users/bchatard/Projects/aYaline/Dev/Sources/Magento1/1610
/Users/bchatard/Projects/aYaline/Dev/magento1-modules/delivery-date

	Process /Users/bchatard/Projects/Sulky/Dev/sandbox
extractProjectName via workspace.xml
	 Project Name sandbox
	  Search 'jet' in 'sandbox' OR 'sandbox'

	Process /Users/bchatard/Projects/brice/jetbrains-alfred-workflow
extractProjectName via .name
	 Project Name jetbrains-alfred-workflow
	  Search 'jet' in 'jetbrains-alfred-workflow' OR 'jetbrains-alfred-workflow'
	   founded

	Process /Users/bchatard/Projects/Sulky/Dev/magento
extractProjectName via .name
	 Project Name Sulky - Magento
	  Search 'jet' in 'sulky - magento' OR 'magento'

	Process /Users/bchatard/Projects/Diverti/Dev/magento2
extractProjectName via .name
	 Project Name Diverti - Magento 2
	  Search 'jet' in 'diverti - magento 2' OR 'magento2'

	Process /Users/bchatard/Projects/aYaline/Dev/magento2-modules/core
extractProjectName via .name
	 Project Name aYaline Capi Magento 2 - Core
	  Search 'jet' in 'ayaline capi magento 2 - core' OR 'core'

	Process /Users/bchatard/Projects/SNTL/Dev/magento
extractProjectName via .name
	 Project Name SNTL - Magento
	  Search 'jet' in 'sntl - magento' OR 'magento'

	Process /Users/bchatard/Projects/aYaline/Dev/aiorp
extractProjectName via .name
	 Project Name aYaline - AIORP
	  Search 'jet' in 'ayaline - aiorp' OR 'aiorp'

	Process /Users/bchatard/Projects/Tourisme/SudCevennes/Dev/sud-cevennes
extractProjectName via workspace.xml
	 Project Name sud-cevennes
	  Search 'jet' in 'sud-cevennes' OR 'sud-cevennes'

	Process /Users/bchatard/Downloads/brice/awesomplete-gh-pages
	 Project Name 

	Process /Users/bchatard/Projects/aYaline/Dev/magento2-modules/dataflow-manager
extractProjectName via .name
	 Project Name aYaline Capi Magento 2 - Dataflow Manager
	  Search 'jet' in 'ayaline capi magento 2 - dataflow manager' OR 'dataflow-manager'

	Process /Users/bchatard/Projects/aYaline/Dev/magento2-modules/copernica
extractProjectName via .name
	 Project Name aYaline Capi Magento 2 - Copernica
	  Search 'jet' in 'ayaline capi magento 2 - copernica' OR 'copernica'

	Process /Users/bchatard/Projects/Denis-Materiaux/Dev/magento
	 Project Name 

	Process /Users/bchatard/Projects/Monosem/Dev/magento
	 Project Name 

	Process /Users/bchatard/Projects/Sulky/Dev/poc-sulky-parse-planches
extractProjectName via workspace.xml
	 Project Name poc-sulky-parse-planches
	  Search 'jet' in 'poc-sulky-parse-planches' OR 'poc-sulky-parse-planches'

	Process /Users/bchatard/Projects/Diverti/Dev/magento
extractProjectName via .name
	 Project Name Diverti - Magento
	  Search 'jet' in 'diverti - magento' OR 'magento'

	Process /Users/bchatard/Projects/aYaline/Dev/magento2-modules/dataflow-manager-component
extractProjectName via workspace.xml
	 Project Name dataflow-manager-component
	  Search 'jet' in 'dataflow-manager-component' OR 'dataflow-manager-component'

	Process /Users/bchatard/Projects/aYaline/Dev/magento1-modules/dataflow-manager
extractProjectName via .name
	 Project Name aYaline - Capi - DataflowManager
	  Search 'jet' in 'ayaline - capi - dataflowmanager' OR 'dataflow-manager'

	Process /Users/bchatard/Projects/aYaline/Dev/gitlab-mantis
extractProjectName via .name
	 Project Name Gitlab / Mantis Connector
	  Search 'jet' in 'gitlab / mantis connector' OR 'gitlab-mantis'

	Process /Users/bchatard/Projects/aYaline/Dev/magento2-modules/cookie-consent
extractProjectName via .name
	 Project Name aYaline Capi Magento 2 - Cookie Consent
	  Search 'jet' in 'ayaline capi magento 2 - cookie consent' OR 'cookie-consent'

	Process /Users/bchatard/Projects/aYaline/Dev/magento2-modules/promotional-gift
extractProjectName via .name
	 Project Name aYaline Capi Magento 2 - Promotional Gift
	  Search 'jet' in 'ayaline capi magento 2 - promotional gift' OR 'promotional-gift'

	Process /Users/bchatard/Projects/Sabre/Dev/magento
	 Project Name 

	Process /Users/bchatard/Projects/aYaline/Dev/magento2-modules/frontend-authorization
extractProjectName via .name
	 Project Name aYaline Capi Magento 2 - Frontend Authorization
	  Search 'jet' in 'ayaline capi magento 2 - frontend authorization' OR 'frontend-authorization'

	Process /Users/bchatard/Projects/Connexing/Dev/magento
extractProjectName via .name
	 Project Name Connexing - Magento
	  Search 'jet' in 'connexing - magento' OR 'magento'

	Process /Users/bchatard/Projects/GPDIS/Dev/magento
	 Project Name 

	Process /Users/bchatard/Projects/aYaline/Dev/projeqtor/tickets
extractProjectName via workspace.xml
	 Project Name tickets
	  Search 'jet' in 'tickets' OR 'tickets'

	Process /Users/bchatard/Projects/aYaline/Dev/projeqtor/tickets-backend
extractProjectName via workspace.xml
	 Project Name tickets-backend
	  Search 'jet' in 'tickets-backend' OR 'tickets-backend'

	Process /Users/bchatard/Projects/HDCZ/Dev/magento
	 Project Name 

	Process /Users/bchatard/Projects/aYaline/Dev/magento2-modules/multi-cart
extractProjectName via .name
	 Project Name aYaline Capi Magento 2 - Multi Cart
	  Search 'jet' in 'ayaline capi magento 2 - multi cart' OR 'multi-cart'

	Process /Users/bchatard/Projects/aYaline/Dev/magento2-modules/express-order
extractProjectName via .name
	 Project Name aYaline Capi Magento 2 - Express Order
	  Search 'jet' in 'ayaline capi magento 2 - express order' OR 'express-order'

	Process /Users/bchatard/Projects/MS/Dev/GIP_Emploi_formation
	 Project Name 

	Process /Users/bchatard/Projects/aYaline/Dev/acl-manager
extractProjectName via workspace.xml
	 Project Name acl-manager
	  Search 'jet' in 'acl-manager' OR 'acl-manager'

	Process /Users/bchatard/Projects/aYaline/Dev/magento2-modules/store-redirect
extractProjectName via workspace.xml
	 Project Name store-redirect
	  Search 'jet' in 'store-redirect' OR 'store-redirect'

	Process /Users/bchatard/Projects/Diverti/Dev/magento2_prod
	 Project Name 

	Process /Users/bchatard/Projects/CB&amp;I
	 Project Name 

	Process /Users/bchatard/Projects/aYaline/Dev/magento1-modules/customer-price
extractProjectName via .name
	 Project Name aYaline - Capi - Customer Price
	  Search 'jet' in 'ayaline - capi - customer price' OR 'customer-price'

	Process /Users/bchatard/Projects/brice/angular2-tuts
extractProjectName via workspace.xml
	 Project Name angular2-tuts
	  Search 'jet' in 'angular2-tuts' OR 'angular2-tuts'

	Process /Users/bchatard/Projects/Palais-des-Thes/Dev/magento
	 Project Name 

	Process /Users/bchatard/Projects/Allbrary/Dev/magento
	 Project Name 

	Process /Users/bchatard/Projects/Tourisme/Royan/Dev/otr
extractProjectName via workspace.xml
	 Project Name otr
	  Search 'jet' in 'otr' OR 'otr'

	Process /Users/bchatard/Projects/brice/brew-update
extractProjectName via .name
	 Project Name brew-update
	  Search 'jet' in 'brew-update' OR 'brew-update'

	Process /Users/bchatard/Projects/aYaline/Dev/magento1-modules/billboard
extractProjectName via .name
	 Project Name aYaline - Capi - Billboard
	  Search 'jet' in 'ayaline - capi - billboard' OR 'billboard'

	Process /Users/bchatard/Projects/aYaline/Dev/magento2-modules/billboard
extractProjectName via .name
	 Project Name aYaline Capi Magento 2 - Billboard
	  Search 'jet' in 'ayaline capi magento 2 - billboard' OR 'billboard'

	Process /Users/bchatard/Projects/aYaline/Dev/magento1-modules/manage-background
extractProjectName via .name
	 Project Name aYaline - Capi - Manage Background
	  Search 'jet' in 'ayaline - capi - manage background' OR 'manage-background'

	Process /Users/bchatard/Projects/Tourisme/CAD22/Dev/cdt22
extractProjectName via workspace.xml
	 Project Name cdt22
	  Search 'jet' in 'cdt22' OR 'cdt22'

	Process /Users/bchatard/Projects/ProtectHomS/Dev/magento
	 Project Name 

	Process /Users/bchatard/Projects/Tourisme/LSDO/Dev/lsdo
extractProjectName via workspace.xml
	 Project Name lsdo
	  Search 'jet' in 'lsdo' OR 'lsdo'

	Process /Users/bchatard/Projects/aYaline/Dev/magento1-modules/attached-documents
extractProjectName via .name
	 Project Name aYaline - Capi - Attached Documents
	  Search 'jet' in 'ayaline - capi - attached documents' OR 'attached-documents'

	Process /Users/bchatard/Projects/Tourisme/CAD22TV/Dev/cad22tv
extractProjectName via workspace.xml
	 Project Name cad22tv
	  Search 'jet' in 'cad22tv' OR 'cad22tv'

	Process /Users/bchatard/Projects/aYaline/Dev/Sources/Magento1/1610
	 Project Name 

	Process /Users/bchatard/Projects/aYaline/Dev/magento1-modules/delivery-date
extractProjectName via .name
	 Project Name aYaline - Capi - Delivery Date
	  Search 'jet' in 'ayaline - capi - delivery date' OR 'delivery-date'

AppPath: /Users/bchatard/Library/Application Support/JetBrains/Toolbox/apps/PhpStorm/ch-0/171.4424.11/PhpStorm.app
Config Path: /Users/bchatard/Library/Preferences/PhpStorm2017.1
Work with: /Users/bchatard/Library/Preferences/PhpStorm2017.1/options/recentProjectDirectories.xml
Raw Projects Path:
 value="$USER_HOME$/Projects/Sulky/Dev/sandbox" value="$USER_HOME$/Projects/brice/jetbrains-alfred-workflow" value="$USER_HOME$/Projects/Sulky/Dev/magento" value="$USER_HOME$/Projects/Diverti/Dev/magento2" value="$USER_HOME$/Projects/aYaline/Dev/magento2-modules/core" value="$USER_HOME$/Projects/SNTL/Dev/magento" value="$USER_HOME$/Projects/aYaline/Dev/aiorp" value="$USER_HOME$/Projects/Tourisme/SudCevennes/Dev/sud-cevennes" value="$USER_HOME$/Downloads/brice/awesomplete-gh-pages" value="$USER_HOME$/Projects/aYaline/Dev/magento2-modules/dataflow-manager" value="$USER_HOME$/Projects/aYaline/Dev/magento2-modules/copernica" value="$USER_HOME$/Projects/Denis-Materiaux/Dev/magento" value="$USER_HOME$/Projects/Monosem/Dev/magento" value="$USER_HOME$/Projects/Sulky/Dev/poc-sulky-parse-planches" value="$USER_HOME$/Projects/Diverti/Dev/magento" value="$USER_HOME$/Projects/aYaline/Dev/magento2-modules/dataflow-manager-component" value="$USER_HOME$/Projects/aYaline/Dev/magento1-modules/dataflow-manager" value="$USER_HOME$/Projects/aYaline/Dev/gitlab-mantis" value="$USER_HOME$/Projects/aYaline/Dev/magento2-modules/cookie-consent" value="$USER_HOME$/Projects/aYaline/Dev/magento2-modules/promotional-gift" value="$USER_HOME$/Projects/Sabre/Dev/magento" value="$USER_HOME$/Projects/aYaline/Dev/magento2-modules/frontend-authorization" value="$USER_HOME$/Projects/Connexing/Dev/magento" value="$USER_HOME$/Projects/GPDIS/Dev/magento" value="$USER_HOME$/Projects/aYaline/Dev/projeqtor/tickets" value="$USER_HOME$/Projects/aYaline/Dev/projeqtor/tickets-backend" value="$USER_HOME$/Projects/HDCZ/Dev/magento" value="$USER_HOME$/Projects/aYaline/Dev/magento2-modules/multi-cart" value="$USER_HOME$/Projects/aYaline/Dev/magento2-modules/express-order" value="$USER_HOME$/Projects/MS/Dev/GIP_Emploi_formation" value="$USER_HOME$/Projects/aYaline/Dev/acl-manager" value="$USER_HOME$/Projects/aYaline/Dev/magento2-modules/store-redirect" value="$USER_HOME$/Projects/Diverti/Dev/magento2_prod" value="$USER_HOME$/Projects/CB&amp;I" value="$USER_HOME$/Projects/aYaline/Dev/magento1-modules/customer-price" value="$USER_HOME$/Projects/brice/angular2-tuts" value="$USER_HOME$/Projects/Palais-des-Thes/Dev/magento" value="$USER_HOME$/Projects/Allbrary/Dev/magento" value="$USER_HOME$/Projects/Tourisme/Royan/Dev/otr" value="$USER_HOME$/Projects/brice/brew-update" value="$USER_HOME$/Projects/aYaline/Dev/magento1-modules/billboard" value="$USER_HOME$/Projects/aYaline/Dev/magento2-modules/billboard" value="$USER_HOME$/Projects/aYaline/Dev/magento1-modules/manage-background" value="$USER_HOME$/Projects/Tourisme/CAD22/Dev/cdt22" value="$USER_HOME$/Projects/ProtectHomS/Dev/magento" value="$USER_HOME$/Projects/Tourisme/LSDO/Dev/lsdo" value="$USER_HOME$/Projects/aYaline/Dev/magento1-modules/attached-documents" value="$USER_HOME$/Projects/Tourisme/CAD22TV/Dev/cad22tv" value="$USER_HOME$/Projects/aYaline/Dev/Sources/Magento1/1610" value="$USER_HOME$/Projects/aYaline/Dev/magento1-modules/delivery-date"
Projects Path:
/Users/bchatard/Projects/Sulky/Dev/sandbox
/Users/bchatard/Projects/brice/jetbrains-alfred-workflow
/Users/bchatard/Projects/Sulky/Dev/magento
/Users/bchatard/Projects/Diverti/Dev/magento2
/Users/bchatard/Projects/aYaline/Dev/magento2-modules/core
/Users/bchatard/Projects/SNTL/Dev/magento
/Users/bchatard/Projects/aYaline/Dev/aiorp
/Users/bchatard/Projects/Tourisme/SudCevennes/Dev/sud-cevennes
/Users/bchatard/Downloads/brice/awesomplete-gh-pages
/Users/bchatard/Projects/aYaline/Dev/magento2-modules/dataflow-manager
/Users/bchatard/Projects/aYaline/Dev/magento2-modules/copernica
/Users/bchatard/Projects/Denis-Materiaux/Dev/magento
/Users/bchatard/Projects/Monosem/Dev/magento
/Users/bchatard/Projects/Sulky/Dev/poc-sulky-parse-planches
/Users/bchatard/Projects/Diverti/Dev/magento
/Users/bchatard/Projects/aYaline/Dev/magento2-modules/dataflow-manager-component
/Users/bchatard/Projects/aYaline/Dev/magento1-modules/dataflow-manager
/Users/bchatard/Projects/aYaline/Dev/gitlab-mantis
/Users/bchatard/Projects/aYaline/Dev/magento2-modules/cookie-consent
/Users/bchatard/Projects/aYaline/Dev/magento2-modules/promotional-gift
/Users/bchatard/Projects/Sabre/Dev/magento
/Users/bchatard/Projects/aYaline/Dev/magento2-modules/frontend-authorization
/Users/bchatard/Projects/Connexing/Dev/magento
/Users/bchatard/Projects/GPDIS/Dev/magento
/Users/bchatard/Projects/aYaline/Dev/projeqtor/tickets
/Users/bchatard/Projects/aYaline/Dev/projeqtor/tickets-backend
/Users/bchatard/Projects/HDCZ/Dev/magento
/Users/bchatard/Projects/aYaline/Dev/magento2-modules/multi-cart
/Users/bchatard/Projects/aYaline/Dev/magento2-modules/express-order
/Users/bchatard/Projects/MS/Dev/GIP_Emploi_formation
/Users/bchatard/Projects/aYaline/Dev/acl-manager
/Users/bchatard/Projects/aYaline/Dev/magento2-modules/store-redirect
/Users/bchatard/Projects/Diverti/Dev/magento2_prod
/Users/bchatard/Projects/CB&amp;I
/Users/bchatard/Projects/aYaline/Dev/magento1-modules/customer-price
/Users/bchatard/Projects/brice/angular2-tuts
/Users/bchatard/Projects/Palais-des-Thes/Dev/magento
/Users/bchatard/Projects/Allbrary/Dev/magento
/Users/bchatard/Projects/Tourisme/Royan/Dev/otr
/Users/bchatard/Projects/brice/brew-update
/Users/bchatard/Projects/aYaline/Dev/magento1-modules/billboard
/Users/bchatard/Projects/aYaline/Dev/magento2-modules/billboard
/Users/bchatard/Projects/aYaline/Dev/magento1-modules/manage-background
/Users/bchatard/Projects/Tourisme/CAD22/Dev/cdt22
/Users/bchatard/Projects/ProtectHomS/Dev/magento
/Users/bchatard/Projects/Tourisme/LSDO/Dev/lsdo
/Users/bchatard/Projects/aYaline/Dev/magento1-modules/attached-documents
/Users/bchatard/Projects/Tourisme/CAD22TV/Dev/cad22tv
/Users/bchatard/Projects/aYaline/Dev/Sources/Magento1/1610
/Users/bchatard/Projects/aYaline/Dev/magento1-modules/delivery-date

	Process /Users/bchatard/Projects/Sulky/Dev/sandbox
extractProjectName via workspace.xml
	 Project Name sandbox
	  Search 'jetb' in 'sandbox' OR 'sandbox'

	Process /Users/bchatard/Projects/brice/jetbrains-alfred-workflow
extractProjectName via .name
	 Project Name jetbrains-alfred-workflow
	  Search 'jetb' in 'jetbrains-alfred-workflow' OR 'jetbrains-alfred-workflow'
	   founded

	Process /Users/bchatard/Projects/Sulky/Dev/magento
extractProjectName via .name
	 Project Name Sulky - Magento
	  Search 'jetb' in 'sulky - magento' OR 'magento'

	Process /Users/bchatard/Projects/Diverti/Dev/magento2
extractProjectName via .name
	 Project Name Diverti - Magento 2
	  Search 'jetb' in 'diverti - magento 2' OR 'magento2'

	Process /Users/bchatard/Projects/aYaline/Dev/magento2-modules/core
extractProjectName via .name
	 Project Name aYaline Capi Magento 2 - Core
	  Search 'jetb' in 'ayaline capi magento 2 - core' OR 'core'

	Process /Users/bchatard/Projects/SNTL/Dev/magento
extractProjectName via .name
	 Project Name SNTL - Magento
	  Search 'jetb' in 'sntl - magento' OR 'magento'

	Process /Users/bchatard/Projects/aYaline/Dev/aiorp
extractProjectName via .name
	 Project Name aYaline - AIORP
	  Search 'jetb' in 'ayaline - aiorp' OR 'aiorp'

	Process /Users/bchatard/Projects/Tourisme/SudCevennes/Dev/sud-cevennes
extractProjectName via workspace.xml
	 Project Name sud-cevennes
	  Search 'jetb' in 'sud-cevennes' OR 'sud-cevennes'

	Process /Users/bchatard/Downloads/brice/awesomplete-gh-pages
	 Project Name 

	Process /Users/bchatard/Projects/aYaline/Dev/magento2-modules/dataflow-manager
extractProjectName via .name
	 Project Name aYaline Capi Magento 2 - Dataflow Manager
	  Search 'jetb' in 'ayaline capi magento 2 - dataflow manager' OR 'dataflow-manager'

	Process /Users/bchatard/Projects/aYaline/Dev/magento2-modules/copernica
extractProjectName via .name
	 Project Name aYaline Capi Magento 2 - Copernica
	  Search 'jetb' in 'ayaline capi magento 2 - copernica' OR 'copernica'

	Process /Users/bchatard/Projects/Denis-Materiaux/Dev/magento
	 Project Name 

	Process /Users/bchatard/Projects/Monosem/Dev/magento
	 Project Name 

	Process /Users/bchatard/Projects/Sulky/Dev/poc-sulky-parse-planches
extractProjectName via workspace.xml
	 Project Name poc-sulky-parse-planches
	  Search 'jetb' in 'poc-sulky-parse-planches' OR 'poc-sulky-parse-planches'

	Process /Users/bchatard/Projects/Diverti/Dev/magento
extractProjectName via .name
	 Project Name Diverti - Magento
	  Search 'jetb' in 'diverti - magento' OR 'magento'

	Process /Users/bchatard/Projects/aYaline/Dev/magento2-modules/dataflow-manager-component
extractProjectName via workspace.xml
	 Project Name dataflow-manager-component
	  Search 'jetb' in 'dataflow-manager-component' OR 'dataflow-manager-component'

	Process /Users/bchatard/Projects/aYaline/Dev/magento1-modules/dataflow-manager
extractProjectName via .name
	 Project Name aYaline - Capi - DataflowManager
	  Search 'jetb' in 'ayaline - capi - dataflowmanager' OR 'dataflow-manager'

	Process /Users/bchatard/Projects/aYaline/Dev/gitlab-mantis
extractProjectName via .name
	 Project Name Gitlab / Mantis Connector
	  Search 'jetb' in 'gitlab / mantis connector' OR 'gitlab-mantis'

	Process /Users/bchatard/Projects/aYaline/Dev/magento2-modules/cookie-consent
extractProjectName via .name
	 Project Name aYaline Capi Magento 2 - Cookie Consent
	  Search 'jetb' in 'ayaline capi magento 2 - cookie consent' OR 'cookie-consent'

	Process /Users/bchatard/Projects/aYaline/Dev/magento2-modules/promotional-gift
extractProjectName via .name
	 Project Name aYaline Capi Magento 2 - Promotional Gift
	  Search 'jetb' in 'ayaline capi magento 2 - promotional gift' OR 'promotional-gift'

	Process /Users/bchatard/Projects/Sabre/Dev/magento
	 Project Name 

	Process /Users/bchatard/Projects/aYaline/Dev/magento2-modules/frontend-authorization
extractProjectName via .name
	 Project Name aYaline Capi Magento 2 - Frontend Authorization
	  Search 'jetb' in 'ayaline capi magento 2 - frontend authorization' OR 'frontend-authorization'

	Process /Users/bchatard/Projects/Connexing/Dev/magento
extractProjectName via .name
	 Project Name Connexing - Magento
	  Search 'jetb' in 'connexing - magento' OR 'magento'

	Process /Users/bchatard/Projects/GPDIS/Dev/magento
	 Project Name 

	Process /Users/bchatard/Projects/aYaline/Dev/projeqtor/tickets
extractProjectName via workspace.xml
	 Project Name tickets
	  Search 'jetb' in 'tickets' OR 'tickets'

	Process /Users/bchatard/Projects/aYaline/Dev/projeqtor/tickets-backend
extractProjectName via workspace.xml
	 Project Name tickets-backend
	  Search 'jetb' in 'tickets-backend' OR 'tickets-backend'

	Process /Users/bchatard/Projects/HDCZ/Dev/magento
	 Project Name 

	Process /Users/bchatard/Projects/aYaline/Dev/magento2-modules/multi-cart
extractProjectName via .name
	 Project Name aYaline Capi Magento 2 - Multi Cart
	  Search 'jetb' in 'ayaline capi magento 2 - multi cart' OR 'multi-cart'

	Process /Users/bchatard/Projects/aYaline/Dev/magento2-modules/express-order
extractProjectName via .name
	 Project Name aYaline Capi Magento 2 - Express Order
	  Search 'jetb' in 'ayaline capi magento 2 - express order' OR 'express-order'

	Process /Users/bchatard/Projects/MS/Dev/GIP_Emploi_formation
	 Project Name 

	Process /Users/bchatard/Projects/aYaline/Dev/acl-manager
extractProjectName via workspace.xml
	 Project Name acl-manager
	  Search 'jetb' in 'acl-manager' OR 'acl-manager'

	Process /Users/bchatard/Projects/aYaline/Dev/magento2-modules/store-redirect
extractProjectName via workspace.xml
	 Project Name store-redirect
	  Search 'jetb' in 'store-redirect' OR 'store-redirect'

	Process /Users/bchatard/Projects/Diverti/Dev/magento2_prod
	 Project Name 

	Process /Users/bchatard/Projects/CB&amp;I
	 Project Name 

	Process /Users/bchatard/Projects/aYaline/Dev/magento1-modules/customer-price
extractProjectName via .name
	 Project Name aYaline - Capi - Customer Price
	  Search 'jetb' in 'ayaline - capi - customer price' OR 'customer-price'

	Process /Users/bchatard/Projects/brice/angular2-tuts
extractProjectName via workspace.xml
	 Project Name angular2-tuts
	  Search 'jetb' in 'angular2-tuts' OR 'angular2-tuts'

	Process /Users/bchatard/Projects/Palais-des-Thes/Dev/magento
	 Project Name 

	Process /Users/bchatard/Projects/Allbrary/Dev/magento
	 Project Name 

	Process /Users/bchatard/Projects/Tourisme/Royan/Dev/otr
extractProjectName via workspace.xml
	 Project Name otr
	  Search 'jetb' in 'otr' OR 'otr'

	Process /Users/bchatard/Projects/brice/brew-update
extractProjectName via .name
	 Project Name brew-update
	  Search 'jetb' in 'brew-update' OR 'brew-update'

	Process /Users/bchatard/Projects/aYaline/Dev/magento1-modules/billboard
extractProjectName via .name
	 Project Name aYaline - Capi - Billboard
	  Search 'jetb' in 'ayaline - capi - billboard' OR 'billboard'

	Process /Users/bchatard/Projects/aYaline/Dev/magento2-modules/billboard
extractProjectName via .name
	 Project Name aYaline Capi Magento 2 - Billboard
	  Search 'jetb' in 'ayaline capi magento 2 - billboard' OR 'billboard'

	Process /Users/bchatard/Projects/aYaline/Dev/magento1-modules/manage-background
extractProjectName via .name
	 Project Name aYaline - Capi - Manage Background
	  Search 'jetb' in 'ayaline - capi - manage background' OR 'manage-background'

	Process /Users/bchatard/Projects/Tourisme/CAD22/Dev/cdt22
extractProjectName via workspace.xml
	 Project Name cdt22
	  Search 'jetb' in 'cdt22' OR 'cdt22'

	Process /Users/bchatard/Projects/ProtectHomS/Dev/magento
	 Project Name 

	Process /Users/bchatard/Projects/Tourisme/LSDO/Dev/lsdo
extractProjectName via workspace.xml
	 Project Name lsdo
	  Search 'jetb' in 'lsdo' OR 'lsdo'

	Process /Users/bchatard/Projects/aYaline/Dev/magento1-modules/attached-documents
extractProjectName via .name
	 Project Name aYaline - Capi - Attached Documents
	  Search 'jetb' in 'ayaline - capi - attached documents' OR 'attached-documents'

	Process /Users/bchatard/Projects/Tourisme/CAD22TV/Dev/cad22tv
extractProjectName via workspace.xml
	 Project Name cad22tv
	  Search 'jetb' in 'cad22tv' OR 'cad22tv'

	Process /Users/bchatard/Projects/aYaline/Dev/Sources/Magento1/1610
	 Project Name 

	Process /Users/bchatard/Projects/aYaline/Dev/magento1-modules/delivery-date
extractProjectName via .name
	 Project Name aYaline - Capi - Delivery Date
	  Search 'jetb' in 'ayaline - capi - delivery date' OR 'delivery-date'

AppPath: /Users/bchatard/Library/Application Support/JetBrains/Toolbox/apps/Rider/ch-0/171.4456.199/Rider EAP.app
Config Path: /Users/bchatard/Library/Preferences/Rider10
Work with: /Users/bchatard/Library/Preferences/Rider10/options/recentSolutions.xml
Raw Projects Path:
 value="$USER_HOME$/RiderProjects/EmptyProject/EmptyProject.sln"
Projects Path:
/Users/bchatard/RiderProjects/EmptyProject/EmptyProject.sln
	Process /Users/bchatard/RiderProjects/EmptyProject/EmptyProject.sln
	 Project Name 

